003744e2840221218a0010f566cf0a22  msp430afe222.h
00e7d202af4a5db34dc27336d053e8f1  msp430f5304.h
0320a885cc1ed2c3be4e145493a0d1aa  msp430f5333.h
05bf4320ead6d680c897248d6bcba264  msp430f5172.h
062261471e354c8addcbf2217a395830  msp430fe4232.h
062261471e354c8addcbf2217a395830  msp430fe4242.h
062261471e354c8addcbf2217a395830  msp430fe4252.h
062261471e354c8addcbf2217a395830  msp430fe4272.h
062261471e354c8addcbf2217a395830  msp430xe42x2.h
0b015b57bb543250ca5820b99e8912f2  msp430fg438.h
0c9e21737a8c292cec4ca6da61ae6200  cc430f6125.h
0c9e21737a8c292cec4ca6da61ae6200  cc430f6126.h
0c9e21737a8c292cec4ca6da61ae6200  cc430f6127.h
0c9e21737a8c292cec4ca6da61ae6200  cc430x612x.h
0df1201c903443bde39c9a554ba8507d  msp430c412.h
0df1201c903443bde39c9a554ba8507d  msp430c413.h
0df1201c903443bde39c9a554ba8507d  msp430f412.h
0df1201c903443bde39c9a554ba8507d  msp430f413.h
0df1201c903443bde39c9a554ba8507d  msp430x41x.h
0e0de70da986b25adb6656b68314ad29  msp430f2003.h
0e0de70da986b25adb6656b68314ad29  msp430f2013.h
0e0de70da986b25adb6656b68314ad29  msp430x20x3.h
0eb4b27146a202b1440ae3b7ff8e13b5  msp430f4784.h
0eb4b27146a202b1440ae3b7ff8e13b5  msp430f4794.h
0eb4b27146a202b1440ae3b7ff8e13b5  msp430x47x4.h
1020009fe621e6b4bf1c9ce025f6ca06  cc430f5123.h
1023c9cddf6f86921734d02318d80c41  msp430c323.h
1023c9cddf6f86921734d02318d80c41  msp430c325.h
1023c9cddf6f86921734d02318d80c41  msp430e325.h
1023c9cddf6f86921734d02318d80c41  msp430p325.h
1023c9cddf6f86921734d02318d80c41  msp430x32x.h
12abb78e153f1bbfeda877a653f06d48  msp430f6631.h
1371789da62d91343fcd7edbf18a88a6  msp430fr5725.h
13cd02aedcddab087814cbeb852c4d5f  msp430f5506.h
14cc5fcc27ed94d9d83414390adf4f2a  cc430f6145.h
1537265c48eea79326707e35365a3680  msp430f6721.h
156a992b62e2bd429b2bbe71192f5a39  msp430f5635.h
1580581ff59b3c3a43fa5fbf19e67e04  msp430g2402.h
15a693f0bdf6270fe704928730cebeda  msp430f5419.h
15a693f0bdf6270fe704928730cebeda  msp430f5436.h
15a693f0bdf6270fe704928730cebeda  msp430f5438.h
15a693f0bdf6270fe704928730cebeda  msp430x54x.h
15b497bce2ed3b0a12404fcd8b6cb309  msp430f5223.h
166f3955295d1aa8bd8e752a56af26f5  msp430f5418a.h
166f3955295d1aa8bd8e752a56af26f5  msp430f5435a.h
166f3955295d1aa8bd8e752a56af26f5  msp430f5437a.h
1726eec50d03ca39c98d4a0b600140f2  msp430f1610.h
1726eec50d03ca39c98d4a0b600140f2  msp430f1611.h
1726eec50d03ca39c98d4a0b600140f2  msp430f1612.h
1726eec50d03ca39c98d4a0b600140f2  msp430f167.h
1726eec50d03ca39c98d4a0b600140f2  msp430f168.h
1726eec50d03ca39c98d4a0b600140f2  msp430f169.h
1726eec50d03ca39c98d4a0b600140f2  msp430x16x.h
174d7fc061af628c00f86e730487a09c  msp430fr5736.h
183bbceb88fed88d38a8df28bec7a51a  msp430fr5732.h
18bb30ba3fe9c67597a582bf1fdc0f0d  msp430fr5730.h
19acb94e22ea4c72a800c825f7e7398b  msp430.h
1a4ee47e2407939a26d65405aac48fc0  cc430f5145.h
1b10e7fb6893a398cbc1645f2af9f7dd  msp430f5524.h
1c62fe4e0173f1797f4440986655c5e9  msp430f5638.h
1ce2be3b0599690a4a38e8cba0970190  msp430g2111.h
1d98fd9192731812f422a9efeb932adc  msp430f447.h
1d98fd9192731812f422a9efeb932adc  msp430f448.h
1d98fd9192731812f422a9efeb932adc  msp430f449.h
1d98fd9192731812f422a9efeb932adc  msp430x44x.h
1dd5dc735543d2311f51d764d2dadcb3  msp430f4250.h
1dd5dc735543d2311f51d764d2dadcb3  msp430f4260.h
1dd5dc735543d2311f51d764d2dadcb3  msp430f4270.h
1dd5dc735543d2311f51d764d2dadcb3  msp430x42x0.h
1eb8a158c05987ff41bd751b16978bc9  msp430f6736.h
1f27a8b2e2890394e9129beb62ecd651  msp430f6632.h
1f9d29df225b3acb612388c76d24cc29  msp430f5218.h
202f19d97911a694bc9a6f435c022432  msp430g2352.h
203854ce0bff0e37bcdeccf03a57d9fa  msp430f439.h
20c2259862ad9e2976c8ebb35fe0caf9  msp430f47126.h
20c2259862ad9e2976c8ebb35fe0caf9  msp430f47166.h
20c2259862ad9e2976c8ebb35fe0caf9  msp430f47176.h
20c2259862ad9e2976c8ebb35fe0caf9  msp430f47186.h
20c2259862ad9e2976c8ebb35fe0caf9  msp430f47196.h
20c2259862ad9e2976c8ebb35fe0caf9  msp430x471x6.h
2148bedc7f314aef32718ad631f6c892  msp430g2332.h
220d4142c0579b3b80fb1837bf0bae19  msp430f5631.h
2408c1e04f2bfa475eaf9307c3298e48  msp430g2553.h
241b5fe42b11bacca5f7c3aab3398fd5  msp430f233.h
241b5fe42b11bacca5f7c3aab3398fd5  msp430f235.h
241b5fe42b11bacca5f7c3aab3398fd5  msp430x23x.h
2482cefb9ad9b2074fea88701f081148  msp430f1471.h
2482cefb9ad9b2074fea88701f081148  msp430f1481.h
2482cefb9ad9b2074fea88701f081148  msp430f1491.h
2482cefb9ad9b2074fea88701f081148  msp430x14x1.h
2654e7126e1fecc2d65e553c435b732d  msp430f147.h
2654e7126e1fecc2d65e553c435b732d  msp430f148.h
2654e7126e1fecc2d65e553c435b732d  msp430f149.h
2654e7126e1fecc2d65e553c435b732d  msp430x14x.h
27ebd970961494dd4869bf9580ae05ae  msp430f5632.h
28d879f20791909a5f371aa2bfa357af  msp430g2432.h
28e8e126c3e57e533a13665d1f5495a4  msp430f5528.h
2963a3e93c30d692fc0dbe71e025ad41  msp430g2203.h
2a2042b67e67e9ce63d6f8066205b49d  msp430g2152.h
2a8317a4f2282d94316130e41857b7e3  msp430f6733.h
2b002b99e240014524850a131df13662  msp430f47163.h
2b002b99e240014524850a131df13662  msp430f47173.h
2b002b99e240014524850a131df13662  msp430f47183.h
2b002b99e240014524850a131df13662  msp430f47193.h
2b002b99e240014524850a131df13662  msp430x471x3.h
2b2de2299323076c7ea9bbcab0d5eb6e  msp430g2211.h
2c134c8444636b06a2d1a8f2f9c54cae  msp430f5227.h
2c2dbd571955440671ee1da08c9e7fac  msp430f5503.h
2d6d2a374dcccf777ec2c794a4e8b943  msp430f5418.h
2d6d2a374dcccf777ec2c794a4e8b943  msp430f5435.h
2d6d2a374dcccf777ec2c794a4e8b943  msp430f5437.h
2eedbe63191d4bf1e888e54da696b210  msp430g2453.h
2f082bbcbb79dee52a7fadcf237a377d  msp430f2001.h
2f082bbcbb79dee52a7fadcf237a377d  msp430f2011.h
2f082bbcbb79dee52a7fadcf237a377d  msp430g2210.h
2f082bbcbb79dee52a7fadcf237a377d  msp430x20x1.h
316d02f5bf58d47972825e2df0ac4023  msp430fe423a.h
316d02f5bf58d47972825e2df0ac4023  msp430fe425a.h
316d02f5bf58d47972825e2df0ac4023  msp430fe427a.h
316d02f5bf58d47972825e2df0ac4023  msp430xe42xa.h
3328ca3fc2a90aa9566e3b5eb76d8096  msp430afe253.h
34061599be287f7c072fb4f984468071  msp430afe233.h
344b44ea16cadf3d5d2cc7a86d7d44a8  msp430fr5737.h
357b7691fa5324bb46d4881fe0c00627  msp430f5519.h
36e1bb2c86e5d9c4208001bb360f3e08  cc430f5147.h
36fec6ebb33a93521708e694bdcf5a85  msp430f2616.h
36fec6ebb33a93521708e694bdcf5a85  msp430f2617.h
36fec6ebb33a93521708e694bdcf5a85  msp430f2618.h
36fec6ebb33a93521708e694bdcf5a85  msp430f2619.h
36fec6ebb33a93521708e694bdcf5a85  msp430x26x.h
371ed9cd303108eb5c996a0000752c54  msp430f5324.h
3b832fc8ab4b35e12460b1ebd51bd68a  msp430f5329.h
3cb1982674d113b0bf7607c1b222e73b  msp430f5501.h
3e5f751addeac566a0d4e5e9493afba6  cc430f5125.h
4273159280ea1d124c09af3f340fca89  msp430g2452.h
437668574be92802894055d8466289df  msp430c111.h
437668574be92802894055d8466289df  msp430c112.h
437668574be92802894055d8466289df  msp430e112.h
437668574be92802894055d8466289df  msp430f110.h
437668574be92802894055d8466289df  msp430f112.h
437668574be92802894055d8466289df  msp430p112.h
437668574be92802894055d8466289df  msp430x11x.h
44a544244194b1ca35caf753c6173c7b  msp430g2212.h
44e9298b0e07c03641be879fb851ab76  msp430f5529.h
451c06009e49634912ef1f4ae104a76a  msp430f5636.h
45ae0b4b2c17c6ceb6b6d4a97952813f  msp430fg437.h
466d359784027f556a276d38829d99d0  msp430fg4250.h
466d359784027f556a276d38829d99d0  msp430fg4260.h
466d359784027f556a276d38829d99d0  msp430fg4270.h
466d359784027f556a276d38829d99d0  msp430xg42x0.h
48203f08a429fe71074b3e746e84da6a  msp430g2313.h
48d5820aab1334c1d07cd90283167f60  msp430f5132.h
4a1d1c46521e2934092bafec67bd0a1e  msp430f6735.h
4a4db724c755009149725bc82aafd269  msp430fg477.h
4a4db724c755009149725bc82aafd269  msp430fg478.h
4a4db724c755009149725bc82aafd269  msp430fg479.h
4a4db724c755009149725bc82aafd269  msp430xg47x.h
4c50b2a4c77577d9ee9849b32b87c7af  msp430f2471.h
4c50b2a4c77577d9ee9849b32b87c7af  msp430f2481.h
4c50b2a4c77577d9ee9849b32b87c7af  msp430f2491.h
4c50b2a4c77577d9ee9849b32b87c7af  msp430x24x1.h
4c7edcc0fee062a53c93bbdb55b56327  msp430g2233.h
4d148aeeaec609b438e92e1946e15179  msp430x551x.h
4d36c3e6db5b3dd5fc32cb9c71e0b95c  msp430fr5729.h
4d66a730a15e61f88bcc5c4df1e10d5f  msp430afe221.h
4fea8b8718442a4d4abdb1cac19a898b  msp430f5336.h
5069fc5cedbacc245f5ec4dc023a0bd4  msp430g2153.h
50a0493c5bd860cfcb47f6a785941b16  cc430f6143.h
531039dbcd54bf16201d5a49dea56b40  msp430f6637.h
576179b140c06db99dee56b60fa65e86  msp430x552x.h
57db6ba0c0bfe0b52187a66032f143ca  msp430f438.h
5830632c3bc5ccb2aef0f7d97302ec30  msp430g2353.h
592964574e796f245b9c79341cf49785  msp430f5521.h
593c430dc28220f3942409ebd21d4316  msp430g2403.h
59e50a586bba5c461c1678518f4e508c  msp430f5219.h
59fd822c9d12ffe28fd68faf143dc3f9  msp430g2102.h
5ae9e25967633590545f980bf49d5b31  msp430f5510.h
5b7406d28e2d91bd49d184481cf3e275  msp430g2303.h
5c02c926a96d4785f1131714e698f9a0  msp430f5131.h
5c8368ef3a76a317c028faf1cd08f3d6  msp430f6630.h
5fe99bdbb0ec240a820fdc4dc99806b4  msp430f5522.h
60d35d5b85466612f02451fc23e3d141  msp430xg43x.h
61ff20c538f7a36dd6cf3f35a221ab69  msp430f5504.h
620cfa6f534dec1774d20a8df2f30e08  msp430g2121.h
6249022169667b74f4f89de003240ef1  msp430g2513.h
625d4fab470c0fcde897f10e5b873aab  msp430f5326.h
630c7f90a5820b19809e2d14542951dc  msp430f477.h
630c7f90a5820b19809e2d14542951dc  msp430f478.h
630c7f90a5820b19809e2d14542951dc  msp430f479.h
630c7f90a5820b19809e2d14542951dc  msp430x47x.h
63230b97fb5c0f6d8436f04c1d852d30  msp430f5217.h
63f41a31e786b94303cb00cd8699155d  msp430f4481.h
63f41a31e786b94303cb00cd8699155d  msp430f4491.h
63f41a31e786b94303cb00cd8699155d  msp430x44x1.h
6693fe02fa88baf8d8b7d28137ea184e  msp430fr5723.h
66e35113f2c571058ecf35e9d1420d69  msp430fr5728.h
672d757cdbc77af868f9b01ca10d2137  msp430f6433.h
67beff1455b1bae8d631954cb972ed27  msp430f6638.h
69e1223bc705965267065131eb7ec844  msp430g2221.h
6aef6a1523a7050a3549377e3423a8fe  msp430g2413.h
6b136274abc88d1004f9f2db335ee73c  msp430f5335.h
6b17b332e2c2c04f22c388e583e21ad5  cc430f6147.h
6c49518947d819a2a3f3a7ac22db6dcf  msp430f2101.h
6c49518947d819a2a3f3a7ac22db6dcf  msp430f2111.h
6c49518947d819a2a3f3a7ac22db6dcf  msp430f2121.h
6c49518947d819a2a3f3a7ac22db6dcf  msp430f2131.h
6c49518947d819a2a3f3a7ac22db6dcf  msp430x21x1.h
6d70905957c9488475bb119c41d7da64  msp430f5222.h
6d7e8582706564a4b2c83adedbe194b6  msp430g2232.h
6f486c1f2889ad5551e5ac5cc99aceab  msp430fr5734.h
6f95cf46f108fd9b624ff3a3600b25af  msp430f5502.h
72c0f9db854c0f49b2c233dfd1c5de54  msp430f2112.h
72c0f9db854c0f49b2c233dfd1c5de54  msp430f2122.h
72c0f9db854c0f49b2c233dfd1c5de54  msp430f2132.h
72c0f9db854c0f49b2c233dfd1c5de54  msp430x21x2.h
731e1ae6f5c08d11533a6a0ebaf0a418  msp430f2410.h
731e1ae6f5c08d11533a6a0ebaf0a418  msp430f247.h
731e1ae6f5c08d11533a6a0ebaf0a418  msp430f248.h
731e1ae6f5c08d11533a6a0ebaf0a418  msp430f249.h
731e1ae6f5c08d11533a6a0ebaf0a418  msp430x24x.h
737b824bd88349b19449664b7817130c  cc430f5143.h
741e052e8d72ca49cad0535f7297e22c  msp430f423.h
741e052e8d72ca49cad0535f7297e22c  msp430f423a.h
741e052e8d72ca49cad0535f7297e22c  msp430f425.h
741e052e8d72ca49cad0535f7297e22c  msp430f425a.h
741e052e8d72ca49cad0535f7297e22c  msp430f427.h
741e052e8d72ca49cad0535f7297e22c  msp430f427a.h
741e052e8d72ca49cad0535f7297e22c  msp430x42x.h
74f3c64dc702023f2b197eaaf7a7b737  msp430f6435.h
769a799ad986cd007ff52e8184990827  msp430afe223.h
78201bb01ab8b4c0cc964ae24a07ff55  msp430fw423.h
78201bb01ab8b4c0cc964ae24a07ff55  msp430fw425.h
78201bb01ab8b4c0cc964ae24a07ff55  msp430fw427.h
78201bb01ab8b4c0cc964ae24a07ff55  msp430fw428.h
78201bb01ab8b4c0cc964ae24a07ff55  msp430fw429.h
78201bb01ab8b4c0cc964ae24a07ff55  msp430xw42x.h
7841631345a4b428fb088e6da8100ad4  msp430g2333.h
7b7950cc6d5e6e2a9b459296b3130204  msp430g2112.h
7cafb19a8bcb89c05cd59b22fc7e9923  msp430f5517.h
7d533eedd1c5053ff5ddb1856036af44  msp430f5526.h
7e167ded3d22eb0fb5cbf4e7564f1bb6  msp430f5328.h
7e61d2acb877c30c04253f9c9c19d1f2  msp430fr5721.h
812a8aac4b8307f719f2f3d0ef42d04e  msp430fr5969.h
818f01deca036b8449f498a9c12f563f  msp430f6633.h
8446b3570b1e61cc3aea7456165b85ce  msp430f6634.h
856c51259cda58d4e83b5af70b15cdeb  msp430f4132.h
856c51259cda58d4e83b5af70b15cdeb  msp430f4152.h
856c51259cda58d4e83b5af70b15cdeb  msp430x41x2.h
85aafdc52c53be52b21984ca747ce572  msp430f2002.h
85aafdc52c53be52b21984ca747ce572  msp430f2012.h
85aafdc52c53be52b21984ca747ce572  msp430g2230.h
85aafdc52c53be52b21984ca747ce572  msp430x20x2.h
85b98f2f376e9b4c90c53d412818d843  cc430f6135.h
85b98f2f376e9b4c90c53d412818d843  cc430f6137.h
85b98f2f376e9b4c90c53d412818d843  cc430x613x.h
867efd70157715f3e021476716a2f9fb  msp430f122.h
867efd70157715f3e021476716a2f9fb  msp430f123.h
867efd70157715f3e021476716a2f9fb  msp430x12x.h
871e362c882cb59ab8bb22eae5948944  msp430fr5727.h
880278f736d3c82572a8bc307984c211  msp430bt5190.h
880278f736d3c82572a8bc307984c211  msp430f5419a.h
880278f736d3c82572a8bc307984c211  msp430f5436a.h
880278f736d3c82572a8bc307984c211  msp430f5438a.h
880278f736d3c82572a8bc307984c211  msp430x54xa.h
89c4ad77000b0f9d73d01446c82450c8  msp430f5151.h
8a085dd05e2837530a8739a8c15fb227  msp430g2252.h
8e2da258b553ff3a4ef2faef760abe78  msp430f6724.h
8e33976b93b9301f1260c0f2aec73707  msp430f133.h
8e33976b93b9301f1260c0f2aec73707  msp430f135.h
8e33976b93b9301f1260c0f2aec73707  msp430x13x.h
8f32e84a00e15ee22172cf2077f6affa  msp430fe423.h
8f32e84a00e15ee22172cf2077f6affa  msp430fe425.h
8f32e84a00e15ee22172cf2077f6affa  msp430fe427.h
8f32e84a00e15ee22172cf2077f6affa  msp430xe42x.h
92c3818ff2e042bc786e98401dc6bd8c  msp430f6734.h
9311a76c2186b94ecbaf38f1b6ee9d3e  msp430f4616.h
9311a76c2186b94ecbaf38f1b6ee9d3e  msp430f4617.h
9311a76c2186b94ecbaf38f1b6ee9d3e  msp430f4618.h
9311a76c2186b94ecbaf38f1b6ee9d3e  msp430f4619.h
9311a76c2186b94ecbaf38f1b6ee9d3e  msp430x46x.h
932b09eefa4c824ef9f0c08e051d3244  msp430f6726.h
93b893fa0751fa72ccc1fbedaa578183  msp430f4783.h
93b893fa0751fa72ccc1fbedaa578183  msp430f4793.h
93b893fa0751fa72ccc1fbedaa578183  msp430x47x3.h
94e065ab359e05140fb7ddef83ba8ffe  msp430f6723.h
993bf0b691e6eaa6d615a07a3077a8b9  msp430afe231.h
9a50cafb7a335cc956bc958318c8bbdd  msp430f5309.h
9b9a802421cc178780897943f4b9f874  msp430f6730.h
9bb00dd97fe97609fbb5304cb4a95107  msp430f5310.h
9bc5bb69238cb93cd3440904724da4ee  msp430g2533.h
9cd654b361df8abdb084231b0c39f2af  msp430f5509.h
9eef0ced453e0e36b3b454008e58d7e4  msp430f5513.h
a13d35fbf99b66d5a8dd0c933ab7b636  msp430c311s.h
a13d35fbf99b66d5a8dd0c933ab7b636  msp430c312.h
a13d35fbf99b66d5a8dd0c933ab7b636  msp430c313.h
a13d35fbf99b66d5a8dd0c933ab7b636  msp430c314.h
a13d35fbf99b66d5a8dd0c933ab7b636  msp430c315.h
a13d35fbf99b66d5a8dd0c933ab7b636  msp430e313.h
a13d35fbf99b66d5a8dd0c933ab7b636  msp430e315.h
a13d35fbf99b66d5a8dd0c933ab7b636  msp430p313.h
a13d35fbf99b66d5a8dd0c933ab7b636  msp430p315.h
a13d35fbf99b66d5a8dd0c933ab7b636  msp430p315s.h
a13d35fbf99b66d5a8dd0c933ab7b636  msp430x31x.h
a2edf8eeccd2820fb51a8867c1fa4c80  msp430f5213.h
a36f5e42427084408e208c0421d8e5fb  msp430g2201.h
a3948939aba339953308f5a2f5d2600a  msp430fr5738.h
a657349147656751d124c2546eac9233  msp430g2001.h
a99d88f7a92716b60f9d79dee7e5ed4f  msp430f6635.h
a9c7fa732616ae83976c46a13b6300af  msp430f5228.h
a9e66d4265cf79d94cf418a3b6eaf111  msp430f415.h
a9e66d4265cf79d94cf418a3b6eaf111  msp430f417.h
a9e66d4265cf79d94cf418a3b6eaf111  msp430x415.h
a9e66d4265cf79d94cf418a3b6eaf111  msp430x417.h
aabce54e0b2a335d33d9662188ec58d2  msp430f2330.h
aabce54e0b2a335d33d9662188ec58d2  msp430f2350.h
aabce54e0b2a335d33d9662188ec58d2  msp430f2370.h
aabce54e0b2a335d33d9662188ec58d2  msp430x23x0.h
ab6a18e3c3648a07047e08550b343bfd  msp430f5212.h
abf0c4ce4b38c8c5cae282976a8ea16c  msp430f6725.h
b170af7e0ce104b724a85d67f7e93037  msp430f5338.h
b19be4c8558b99330c83fd9938b14ebf  msp430f5152.h
b1f9bfd61a67f4cb0287d08dab70c785  msp430f6636.h
b2277a3d228b536c38d15128b552fea4  msp430f46161.h
b2277a3d228b536c38d15128b552fea4  msp430f46171.h
b2277a3d228b536c38d15128b552fea4  msp430f46181.h
b2277a3d228b536c38d15128b552fea4  msp430f46191.h
b2277a3d228b536c38d15128b552fea4  msp430x461x1.h
b40d97c93c7cf9176f2118d1ca71c8f3  msp430fr5724.h
b4be149e1c156f807e3e61985250f2c3  msp430f5505.h
b6b96b9a81fb9bdd19fc4b0b71b9f43b  msp430f6436.h
b72cbb3a198a4fd611e5654c4da68647  msp430xgeneric.h
b990fb9e05f66eddcc614c05ee237dda  msp430f6720.h
baa2ba18c66d31af3343cc0c4ed0e61d  msp430afe251.h
bae18569be70cebcc6d897c95a2c48a5  msp430f5630.h
bec6a89162877fc55644ea79b3b2399e  msp430f5342.h
bfd324a617d45a87e220ebc55425fe67  msp430f47127.h
bfd324a617d45a87e220ebc55425fe67  msp430f47167.h
bfd324a617d45a87e220ebc55425fe67  msp430f47177.h
bfd324a617d45a87e220ebc55425fe67  msp430f47187.h
bfd324a617d45a87e220ebc55425fe67  msp430f47197.h
bfd324a617d45a87e220ebc55425fe67  msp430x471x7.h
c0dff8b6128cae58bd3d984f3f38310f  msp430f5500.h
c2a88419dde03f18718bd93c74393b38  msp430g2202.h
c314fbb66d39e9f35010457e3f1345ad  msp430g2302.h
c54b5f64039b36ad76feb76d945e2e98  msp430f1222.h
c54b5f64039b36ad76feb76d945e2e98  msp430f1232.h
c54b5f64039b36ad76feb76d945e2e98  msp430x12x2.h
c7c5f63724fe2808bf08d18171171024  msp430f6731.h
c926f9c63422e4251c1b73af348952de  msp430fg439.h
caa7d02eb8e503f19c4fcca112cc54e7  msp430c1331.h
caa7d02eb8e503f19c4fcca112cc54e7  msp430c1351.h
caa7d02eb8e503f19c4fcca112cc54e7  msp430x13x1.h
cabc7c977d806feaef7ce70c16e4eab2  msp430g2132.h
cbf8e917feff5167ce034886e06e8d08  msp430c1111.h
cbf8e917feff5167ce034886e06e8d08  msp430c1121.h
cbf8e917feff5167ce034886e06e8d08  msp430f1101.h
cbf8e917feff5167ce034886e06e8d08  msp430f1101a.h
cbf8e917feff5167ce034886e06e8d08  msp430f1111.h
cbf8e917feff5167ce034886e06e8d08  msp430f1111a.h
cbf8e917feff5167ce034886e06e8d08  msp430f1121.h
cbf8e917feff5167ce034886e06e8d08  msp430f1121a.h
cbf8e917feff5167ce034886e06e8d08  msp430x11x1.h
ce233038556bdd4105bf8bea6e1c8afc  msp430g2213.h
cff0f7ce5af8bb50e6f36d9cbc9a2862  msp430fr5726.h
d28c80b26c36b3498bc06a98e6fa1b17  msp430f5171.h
d500be64b6c0203999a9f026e979db22  msp430g2101.h
d65ab208e923d6ceef2498983a454299  msp430f1122.h
d65ab208e923d6ceef2498983a454299  msp430f1132.h
d65ab208e923d6ceef2498983a454299  msp430x11x2.h
d6cc13650e509c06d4411aa89b7df31c  msp430fr5722.h
d796e942ed9ed23f46260450bbb59fb1  msp430c336.h
d796e942ed9ed23f46260450bbb59fb1  msp430c337.h
d796e942ed9ed23f46260450bbb59fb1  msp430e337.h
d796e942ed9ed23f46260450bbb59fb1  msp430p337.h
d796e942ed9ed23f46260450bbb59fb1  msp430x33x.h
d7a1351fbf3e2904357c0d8ee262625e  msp430g2113.h
d8d876613ba99ff190919d2111bdf624  msp430afe232.h
da2eacda6c2b87428b034477168e24f8  msp430f5525.h
da716eea1f8ea3b1e5da1f7557c303e3  msp430f5514.h
daaf3325db59e425c180622df3ce78e0  msp430f5325.h
dac49a36c2ac34d377b58763c0e319e5  msp430f2234.h
dac49a36c2ac34d377b58763c0e319e5  msp430f2254.h
dac49a36c2ac34d377b58763c0e319e5  msp430f2274.h
dac49a36c2ac34d377b58763c0e319e5  msp430x22x4.h
dbfe072564f79270a0f340dbc7f0df76  msp430fr5735.h
dca55d43b81e03ca0688006b287a3046  msp430f5507.h
dcc651780924eb2f917535445087cf07  msp430f5637.h
df321cdb3268e14ec9b397441fa85642  msp430g2253.h
e0189be5f57602177781997b21b1e069  msp430f2416.h
e0189be5f57602177781997b21b1e069  msp430f2417.h
e0189be5f57602177781997b21b1e069  msp430f2418.h
e0189be5f57602177781997b21b1e069  msp430f2419.h
e0189be5f57602177781997b21b1e069  msp430x241x.h
e0717869468023c53996c61583d0b2c6  msp430f5308.h
e2b13e6fba7a7f7dbfc5e70b47e9b379  msp430f5214.h
e31494a109e36d4cf1d4651d1712c330  msp430fr5731.h
e45bf009569be46bf2288f1dbbb08c92  msp430f5224.h
e46c1c5a907072326c14e56268bb2559  msp430cg4616.h
e46c1c5a907072326c14e56268bb2559  msp430cg4617.h
e46c1c5a907072326c14e56268bb2559  msp430cg4618.h
e46c1c5a907072326c14e56268bb2559  msp430cg4619.h
e46c1c5a907072326c14e56268bb2559  msp430fg4616.h
e46c1c5a907072326c14e56268bb2559  msp430fg4617.h
e46c1c5a907072326c14e56268bb2559  msp430fg4618.h
e46c1c5a907072326c14e56268bb2559  msp430fg4619.h
e46c1c5a907072326c14e56268bb2559  msp430xg46x.h
e5c5aa9d3875adc7d71ee8c3e2148efb  msp430fr5733.h
e6fe3ba561ec6440d1f2711ef384ab62  msp430f5341.h
e7499e523e16e87fb7302238ec2e5ec7  msp430f5508.h
e78fcf2892423560598b51b292758472  msp430f5229.h
ed6a6f93183ac45b751673c4571f05f5  msp430f5634.h
eec4f990f0a9540229ac0fc2b37e339b  msp430f5633.h
ef97fe9d111a3894df07081bd2f91d5c  msp430g2433.h
efe6c47299c6935e65fc647f8a1e1918  msp430g2412.h
f02f1a6cc62f3ffe11e9d718af1e109b  cc430f5133.h
f02f1a6cc62f3ffe11e9d718af1e109b  cc430f5135.h
f02f1a6cc62f3ffe11e9d718af1e109b  cc430f5137.h
f02f1a6cc62f3ffe11e9d718af1e109b  cc430x513x.h
f0eacbdd2ec35b934a57d52142c1378c  msp430f2232.h
f0eacbdd2ec35b934a57d52142c1378c  msp430f2252.h
f0eacbdd2ec35b934a57d52142c1378c  msp430f2272.h
f0eacbdd2ec35b934a57d52142c1378c  msp430x22x2.h
f2eb75105feb3ce56bd44ee542228626  msp430f5340.h
f34e0b2b00b6a402bc3d51c938322d15  msp430fr5739.h
f3776e9bd365922adc2e18795704813d  msp430g2312.h
f45a3bbc75fb5b28f6d66e19fe426dda  msp430afe252.h
f50bd8d8bea840acddbfd1d2935dcfd4  msp430g2231.h
f5462c1ba6881288d8cff3c047b260fb  msp430fr5720.h
fa7a622ec36a004dc972a8d8d0bb4615  msp430f5515.h
fb1643d935e19042fa6e5f016feeea54  msp430f155.h
fb1643d935e19042fa6e5f016feeea54  msp430f156.h
fb1643d935e19042fa6e5f016feeea54  msp430f157.h
fb1643d935e19042fa6e5f016feeea54  msp430x15x.h
fb5ebf9d6c342f5117587e7e2cd40f0f  msp430f435.h
fb5ebf9d6c342f5117587e7e2cd40f0f  msp430f436.h
fb5ebf9d6c342f5117587e7e2cd40f0f  msp430f437.h
fb5ebf9d6c342f5117587e7e2cd40f0f  msp430x43x.h
fbde22a97af520435150c9d9b17dbe3e  msp430f4351.h
fbde22a97af520435150c9d9b17dbe3e  msp430f4361.h
fbde22a97af520435150c9d9b17dbe3e  msp430f4371.h
fbde22a97af520435150c9d9b17dbe3e  msp430x43x1.h
fca61a3b9cbdf65fcc4488c993c4913d  msp430c091.h
fca61a3b9cbdf65fcc4488c993c4913d  msp430c092.h
fca61a3b9cbdf65fcc4488c993c4913d  msp430l092.h
fca61a3b9cbdf65fcc4488c993c4913d  msp430x09x.h
fefa92c748cb400fd7fbaaadc25a3177  msp430g2131.h
ff9c7e7caa4007d4a482e10b62828681  msp430f6438.h
ffd5b73ca4ac6e666d14d735e834d6ba  msp430f5327.h
ffdad056ea9c1e7552d637541df4b700  msp430f5527.h
