2FLASH_IP
8BTC
ADC10
ADC10_A
ADC10_B
ADC12
ADC12_B
ADC12_PLUS
ADC14
AES
AES256
APOOL
AUX_SUPPLY
BACKUP_RAM
BASIC_CLOCK
BATTERY_CHARGER
BC2
BT
BT_RTC
CAPLUS
CAP_SENSE_IO_0
CAP_SENSE_IO_1
CC1101
CCS
COMPA
COMPB
COMPD
CRC
CS
CS_A
DAC12_1
DAC12_2
DMAX_3
DMAX_6
DMA_1
DMA_3
EPROM
ESP430E
EUSCI_A0
EUSCI_A1
EUSCI_A2
EUSCI_B0
FLASH
FLASH2
FLL
FLLPLUS
FLLPLUS_SMALL
FRAM
FRAM_FR5XX
I2C
LCD
LCD4
LCD_A
LCD_B
LCD_C
MPU
MPU_A
MPY
MPY32
MSP430XV2_CPU
MSP430X_CPU
OA_2
OA_3
PMM
PMM_FR5xx
PMM_FRAM
PORT0
PORT1
PORT10
PORT10_R
PORT11_R
PORT1_MAPPING
PORT1_R
PORT2
PORT2_MAPPING
PORT2_R
PORT3
PORT3_MAPPING
PORT3_R
PORT4
PORT4_MAPPING
PORT4_R
PORT5
PORT5_R
PORT6
PORT6_R
PORT7
PORT7_R
PORT8
PORT8_R
PORT9
PORT9_R
PORTA
PORTA_R
PORTB
PORTB_R
PORTC_R
PORTD_R
PORTE_R
PORTF_R
PORTJ_R
PORT_MAPPING
PU
RC
REF
REF_A
RTC
RTC_B
RTC_C
RTC_D
SCANIF
SD16_2
SD16_3
SD16_A1
SD16_A3
SD16_A4
SD16_A6
SD16_A7
SD24_A1
SD24_A2
SD24_A3
SD24_B
SD24_B2
SD24_B3
SFR
SVS
SYS
T0A3
T0A5
T0B3
T0B7
T0D3
T1A2
T1A3
T1A5
T1B3
T1D3
T2A2
T2A3
T2B3
T3A2
TA2
TA3
TA5
TB3
TB7
TEV0
TEV1
TLV
TP
UART0
UART1
UCS
UCS_RF
USB
USCI
USCI_A0
USCI_A1
USCI_A2
USCI_A3
USCI_AB0
USCI_AB1
USCI_B0
USCI_B1
USCI_B2
USCI_B3
USI
WDT
WDT_A
